Webscraping: API
…
Скопіюйте кінцеву точку API, яка з’явиться у спливаючому вікні.

Необов’язково: Вставте цю кінцеву точку в нову вкладку у своєму браузері. Ви побачите купу тексту JSON, який можна гарно відобразити за допомогою розширення браузера JSONView, яке ми встановили раніше.

Тепер, коли ми знайшли кінцеву точку API, давайте прочитаємо дані в R. Ми зробимо це за допомогою функції fromJSON() з чудового пакету jsonlite (link). Це автоматично перетворить масив JSON на звичайний дата фрейм R. Однак я піду ще трохи далі і перетворю його на тібл, оскільки з ним приємніше працювати.

library(jsonlite)

nyc_trees = 
  fromJSON("https://data.cityofnewyork.us/resource/uvpi-gqnh.json") %>%
  as_tibble()

nyc_trees

# A tibble: 1,000 × 45
   tree_id block_id created_at        tree_dbh stump_diam curb_loc status health
   <chr>   <chr>    <chr>             <chr>    <chr>      <chr>    <chr>  <chr> 
 1 180683  348711   2015-08-27T00:00… 3        0          OnCurb   Alive  Fair  
 2 200540  315986   2015-09-03T00:00… 21       0          OnCurb   Alive  Fair  
 3 204026  218365   2015-09-05T00:00… 3        0          OnCurb   Alive  Good  
 4 204337  217969   2015-09-05T00:00… 10       0          OnCurb   Alive  Good  
 5 189565  223043   2015-08-30T00:00… 21       0          OnCurb   Alive  Good  
 6 190422  106099   2015-08-30T00:00… 11       0          OnCurb   Alive  Good  
 7 190426  106099   2015-08-30T00:00… 11       0          OnCurb   Alive  Good  
 8 208649  103940   2015-09-07T00:00… 9        0          OnCurb   Alive  Good  
 9 209610  407443   2015-09-08T00:00… 6        0          OnCurb   Alive  Good  
10 192755  207508   2015-08-31T00:00… 21       0          OffsetF… Alive  Fair  
# ℹ 990 more rows
# ℹ 37 more variables: spc_latin <chr>, spc_common <chr>, steward <chr>,
#   guards <chr>, sidewalk <chr>, user_type <chr>, problems <chr>,
#   root_stone <chr>, root_grate <chr>, root_other <chr>, trunk_wire <chr>,
#   trnk_light <chr>, trnk_other <chr>, brch_light <chr>, brch_shoe <chr>,
#   brch_other <chr>, address <chr>, zipcode <chr>, zip_city <chr>,
#   cb_num <chr>, borocode <chr>, boroname <chr>, cncldist <chr>, …
…
library(listviewer)
jsonedit(fred, mode = "view") ## Краще для документів Quarto.

На щастя, цей конкретний об’єкт списку не надто складний. Ми бачимо, що насправді нас цікавить піделемент fred$observations. Я використаю purrr::pluck(), щоб дістати цей елемент (є багато інших способів зробити це), а потім перетворимо його на тібл.

fred =
  fred %>% 
  purrr::pluck("observations") %>% ## Витягніть елемент списку "$observations".
  # .$observations %>% ## Я також міг би скористатися цим
  # magrittr::extract("observations") %>% ## Або цим
  as_tibble()
fred

# A tibble: 94 × 4
   realtime_start realtime_end date       value   
   <chr>          <chr>        <chr>      <chr>   
 1 2023-04-30     2023-04-30   1929-01-01 1120.718
 2 2023-04-30     2023-04-30   1930-01-01 1025.678
 3 2023-04-30     2023-04-30   1931-01-01 958.927 
 4 2023-04-30     2023-04-30   1932-01-01 834.769 
 5 2023-04-30     2023-04-30   1933-01-01 823.628 
 6 2023-04-30     2023-04-30   1934-01-01 911.541 
 7 2023-04-30     2023-04-30   1935-01-01 993.105 
 8 2023-04-30     2023-04-30   1936-01-01 1119.585
 9 2023-04-30     2023-04-30   1937-01-01 1178.246
10 2023-04-30     2023-04-30   1938-01-01 1139.642
# ℹ 84 more rows
…
library(janitor)

rankings =
  bind_cols(
    rugby$entries$team,
    rugby$entries %>% select(matches:previousPos)
    ) %>%
  clean_names() %>%
  select(-c(id, alt_id, annotations)) %>% ## Ці колонки не додають особливого інтересу
  select(pos, pts, everything()) %>% ## Змініть порядок решти стовпців
  as_tibble()

rankings

# A tibble: 109 × 7
     pos   pts name         abbreviation matches previous_pts previous_pos
   <int> <dbl> <chr>        <chr>          <int>        <dbl>        <int>
 1     1  91.8 Ireland      IRE              231         91.8            1
 2     2  90.5 France       FRA              234         90.5            2
 3     3  89.0 New Zealand  NZL              254         89.0            3
 4     4  89.0 South Africa RSA              235         89.0            4
 5     5  82.8 Scotland     SCO              225         82.8            5
 6     6  82.1 England      ENG              240         82.1            6
 7     7  81.8 Australia    AUS              261         81.8            7
 8     8  80.7 Argentina    ARG              214         80.7            8
 9     9  78.1 Wales        WAL              251         78.1            9
10    10  77.4 Japan        JPN              186         77.4           10
# ℹ 99 more rows
…
Нарешті, тепер ми можемо виконувати ітерацію (тобто цикл) над нашим вектором dates, підключаючи значення послідовно до нашої функції rugby_scrape. Є багато способів ітерації в R, але я збираюся використовувати lapply()10. Потім ми зв’яжемо все в один кадр даних за допомогою dplyr::bind_rows() і назвемо отриманий об’єкт rankings_history.

rankings_history =
  lapply(dates, rugby_scrape) %>% ## Запустіть ітерацію
  bind_rows() ## Зв’яжіть отриманий фрейм в один дата фрейм
rankings_history

# A tibble: 1,997 × 8
   date         pos   pts name    abbreviation matches previous_pts previous_pos
   <date>     <int> <dbl> <chr>   <chr>          <int>        <dbl>        <int>
 1 2003-12-29     1  94.0 England ENG               17         92.1            1
 2 2003-12-29     2  90.1 New Ze… NZL               17         88.2            3
 3 2003-12-29     3  86.6 Austra… AUS               17         88.4            2
 4 2003-12-29     4  82.7 France  FRA               17         84.7            4
 5 2003-12-29     5  81.2 South … RSA               15         81.2            5
 6 2003-12-29     6  80.5 Ireland IRE               15         80.5            6
 7 2003-12-29     7  78.0 Argent… ARG               14         78.0            7
 8 2003-12-29     8  76.9 Wales   WAL               15         76.9            8
 9 2003-12-29     9  76.4 Scotla… SCO               15         76.4            9
10 2003-12-29    10  73.5 Samoa   SAM               14         73.5           10
# ℹ 1,987 more rows
…
